…
As we can see, quadratic’s effect is just taking into account the
‘long-shot bias’, which is caused by empty-net goals.

``` r
artificial_shots <- crossing(location_x = seq(30, 88, by = 1), location_y = seq(-37, 37, by = 1))

artificial_shots$distance <- distance(artificial_shots$location_x, artificial_shots$location_y)
artificial_shots$angle <- angle_theta(artificial_shots$location_x, artificial_shots$location_y)
#artificial_shots$xg_logit <- 1 / (1 + exp(-logit_intercept - distance(artificial_shots$location_x,artificial_shots$location_y) * logit_distance - angle_theta(artificial_shots$location_x, artificial_shots$location_y) * logit_angle))
artificial_shots
```

    ## # A tibble: 4,425 × 4
    ##    location_x location_y distance angle
    ##         <dbl>      <dbl>    <dbl> <dbl>
    ##  1         30        -37     69.6  4.18
    ##  2         30        -36     69.1  4.25
    ##  3         30        -35     68.6  4.31
    ##  4         30        -34     68.1  4.37
    ##  5         30        -33     67.6  4.44
    ##  6         30        -32     67.1  4.50
    ##  7         30        -31     66.6  4.57
    ##  8         30        -30     66.2  4.63
    ##  9         30        -29     65.7  4.69
    ## 10         30        -28     65.3  4.75
    ## # … with 4,415 more rows
…
